module restaurante

go 1.19

require (
	github.com/alexedwards/scs/pgxstore v0.0.0-20230902070821-95fa2ac9d520
	github.com/alexedwards/scs/v2 v2.5.1
	github.com/jackc/pgconn v1.14.1
	github.com/jackc/pgx/v4 v4.18.1
	github.com/jackc/pgx/v5 v5.3.1
	github.com/joho/godotenv v1.5.1
	github.com/justinas/nosurf v1.1.1
)

require (
	github.com/jackc/puddle/v2 v2.2.0 // indirect
	golang.org/x/sync v0.1.0 // indirect
)

require (
	github.com/asaskevich/govalidator v0.0.0-20230301143203-a9d515a09cc2
	github.com/go-chi/chi v1.5.5
	github.com/jackc/chunkreader/v2 v2.0.1 // indirect
	github.com/jackc/pgio v1.0.0 // indirect
	github.com/jackc/pgpassfile v1.0.0 // indirect
	github.com/jackc/pgproto3/v2 v2.3.2 // indirect
	github.com/jackc/pgservicefile v0.0.0-20221227161230-091c0ba34f0a // indirect
	github.com/jackc/pgtype v1.14.0 // indirect
	golang.org/x/crypto v0.6.0
	golang.org/x/text v0.7.0 // indirect
)
